<svg width="663" height="624" viewBox="0 0 663 624" fill="none" xmlns="http://www.w3.org/2000/svg">
<path opacity="0.3" d="M-156.314 8.93205L-169.707 27.857M662.265 92.9035L582.39 373.166L662.265 92.9035ZM582.565 373.121L159.129 385.634L582.565 373.121ZM159.129 385.634L-2.14828 623.392L159.129 385.634ZM108.359 374.17L494.622 362.587L108.359 374.17ZM494.796 362.542L517.828 330.642L494.796 362.542ZM437.202 105.952L512.911 -161.84L437.202 105.952ZM501.592 320.169L437.202 105.952L501.592 320.169ZM-23.5786 547.224L95.7193 371.157L-23.5786 547.224ZM95.5447 371.201L472.513 359.851L95.5447 371.201ZM472.735 359.973L501.592 320.169L472.735 359.973ZM408.055 52.2519L465.059 -149.629L408.055 52.2519ZM485.262 309.363L408.008 52.0856L485.262 309.363ZM-27.8834 531.924L82.9513 368.354L-27.8834 531.924ZM82.9513 368.354L450.673 357.403L82.9513 368.354ZM450.673 357.403L485.309 309.53L450.673 357.403ZM378.733 -1.40348L417.033 -137.374L378.733 -1.40348ZM468.979 298.724L378.733 -1.40348L468.979 298.724ZM-32.1882 516.624L70.1367 365.386L-32.1882 516.624ZM70.1367 365.386L428.565 354.667L70.1367 365.386ZM428.565 354.667L468.979 298.724L428.565 354.667ZM349.538 -55.2697L369.181 -125.163L349.538 -55.2697ZM452.696 288.085L349.538 -55.2697L452.696 288.085ZM-36.493 501.324L57.3687 362.584L-36.493 501.324ZM57.3687 362.584L406.503 352.098L57.3687 362.584ZM406.503 352.098L452.696 288.085L406.503 352.098ZM320.169 -109.091L321.329 -112.952L320.169 -109.091ZM436.412 277.446L320.169 -109.091L436.412 277.446ZM-40.8446 485.858L44.554 359.615L-40.8446 485.858ZM44.554 359.615L384.395 349.362L44.554 359.615ZM384.395 349.362L436.412 277.446L384.395 349.362ZM420.082 266.64L306.962 -109.464L420.082 266.64ZM-45.1961 470.392L31.7393 356.647L-45.1961 470.392ZM31.7393 356.647L362.334 346.792L31.7393 356.647ZM362.334 346.792L420.129 266.807L362.334 346.792ZM403.625 256.046L294.784 -106.178L403.625 256.046ZM-49.5009 455.092L18.9713 353.845L-49.5009 455.092ZM18.9713 353.845L340.225 344.056L18.9713 353.845ZM340.225 344.056L403.625 256.046L340.225 344.056ZM387.295 245.24L282.559 -103.059L387.295 245.24ZM-53.8993 439.459L5.93514 350.754L-53.8993 439.459ZM5.98192 350.921L317.943 341.365L5.98192 350.921ZM317.943 341.365L387.295 245.24L317.943 341.365ZM370.79 234.48L270.334 -99.9393L370.79 234.48ZM-58.2509 423.993L-6.83273 347.952L-58.2509 423.993ZM-6.83273 347.952L295.706 338.84L-6.83273 347.952ZM295.706 338.84L370.79 234.48L295.706 338.84ZM354.285 223.719L257.888 -96.9416L354.285 223.719ZM-62.6025 408.527L-19.8221 345.028L-62.6025 408.527ZM-19.8221 345.028L273.424 336.148L-19.8221 345.028ZM273.598 336.104L354.46 223.674L273.598 336.104ZM337.955 212.913L245.884 -93.7003L337.955 212.913ZM-67.0008 392.894L-32.6369 342.06L-67.0008 392.894ZM-32.6369 342.06L251.315 333.413L-32.6369 342.06ZM251.315 333.413L337.955 212.913L251.315 333.413ZM321.451 202.152L233.485 -90.5362L321.451 202.152ZM-71.3992 377.262L-45.6262 339.136L-71.3992 377.262ZM-45.6262 339.136L229.032 330.721L-45.6262 339.136ZM229.032 330.721L321.451 202.152L229.032 330.721ZM304.946 191.391L221.085 -87.3721L304.946 191.391ZM-75.7508 361.795L-58.6156 336.212L-75.7508 361.795ZM-58.6156 336.212L206.575 328.074L-58.6156 336.212ZM206.575 328.074L304.725 191.27L206.575 328.074ZM288.395 180.464L208.814 -84.4189L288.395 180.464ZM-80.1959 345.996L-71.477 333.077L-80.1959 345.996ZM-71.6049 333.288L184.292 325.383L-71.6049 333.288ZM184.292 325.383L288.395 180.464L184.292 325.383ZM271.89 169.703L196.461 -81.0885L271.89 169.703ZM-84.5943 330.364L161.834 322.736L-84.5943 330.364ZM162.009 322.692L271.843 169.537L162.009 322.692ZM255.164 158.821L184.061 -77.9244L255.164 158.821ZM-85.5301 327.038L139.551 320.045L-85.5301 327.038ZM139.551 320.045L255.164 158.821L139.551 320.045ZM238.613 147.894L171.615 -74.9266L238.613 147.894ZM-86.4659 323.712L117.268 317.354L-86.4659 323.712ZM117.094 317.398L238.613 147.894L117.094 317.398ZM222.061 136.966L159.39 -71.8071L222.061 136.966ZM-87.4486 320.219L94.7642 314.541L-87.4486 320.219ZM94.811 314.707L222.108 137.133L94.811 314.707ZM205.335 126.084L146.816 -68.5985L205.335 126.084ZM-88.3844 316.893L72.3067 311.894L-88.3844 316.893ZM72.3067 311.894L205.335 126.084L72.3067 311.894ZM188.609 115.201L134.417 -65.4344L188.609 115.201ZM-89.3202 313.567L49.8491 309.247L-89.3202 313.567ZM49.8491 309.247L188.784 115.157L49.8491 309.247ZM172.058 104.274L122.064 -62.104L172.058 104.274ZM-90.256 310.241L27.2169 306.645L-90.256 310.241ZM27.2169 306.645L171.883 104.319L27.2169 306.645ZM155.285 93.225L109.443 -59.0616L155.285 93.225ZM-91.1918 306.915L4.75935 303.998L-91.1918 306.915ZM4.71256 303.832L155.285 93.225L4.71256 303.832ZM138.559 82.3424L97.0902 -55.7312L138.559 82.3424ZM-92.1745 303.423L-17.7917 301.018L-92.1745 303.423ZM-17.745 301.185L138.559 82.3424L-17.745 301.185ZM121.786 71.2935L84.4692 -52.6889L121.786 71.2935ZM-93.1103 300.097L-40.424 298.416L-93.1103 300.097ZM-40.424 298.416L121.786 71.2935L-40.424 298.416ZM104.885 60.4554L71.9418 -49.3139L104.885 60.4554ZM-94.0461 296.771L-63.0562 295.814L-94.0461 296.771ZM-63.0562 295.814L104.885 60.4554L-63.0562 295.814ZM88.1125 49.4065L59.3676 -46.1053L88.1125 49.4065ZM-95.0287 293.278L-85.7352 293.046L-95.0287 293.278ZM-85.7352 293.046L88.1125 49.4065L-85.7352 293.046ZM71.3397 38.3576L46.9681 -42.9412L71.3397 38.3576ZM-99.3803 277.812L71.3397 38.3576L-99.3803 277.812ZM54.3922 27.3532L34.2194 -39.688L54.3922 27.3532ZM-106.352 253.033L54.3922 27.3532L-106.352 253.033ZM640.273 14.7406L553.558 319.92L640.273 14.7406ZM560.762 -174.05L466.35 159.652L560.762 -174.05ZM618.187 -63.7548L524.457 266.386L618.187 -63.7548ZM596.102 -142.25L495.403 213.019L596.102 -142.25ZM553.511 319.754L566.282 362.482L553.511 319.754ZM466.303 159.485L517.828 330.642L466.303 159.485ZM524.457 266.386L550.173 351.798L524.457 266.386ZM495.403 213.019L533.937 341.325L495.403 213.019ZM21.6452 -36.4793L37.4448 16.3488L21.6452 -36.4793ZM9.07101 -33.2707L20.672 5.2999L9.07101 -33.2707ZM-3.50317 -30.062L3.67764 -5.87075L-3.50317 -30.062ZM-16.252 -26.8088L-13.2699 -16.8751L-16.252 -26.8088ZM146.535 382.787L-6.40628 608.258L146.535 382.787ZM108.359 374.17L-19.2738 562.524L108.359 374.17ZM133.767 379.985L-10.6643 593.124L133.767 379.985ZM121.127 376.972L-14.9691 577.824L121.127 376.972ZM560.678 370.507L146.535 382.787L560.678 370.507ZM538.617 367.937L133.767 379.985L538.617 367.937ZM516.683 365.157L121.127 376.972L516.683 365.157ZM566.282 362.482L560.457 370.385L566.282 362.482ZM550.22 351.964L538.791 367.893L550.22 351.964ZM533.937 341.325L516.683 365.157L533.937 341.325ZM37.6194 16.3043L-113.324 228.253L37.6194 16.3043ZM20.6252 5.1336L-120.343 203.308L20.6252 5.1336ZM3.67764 -5.87075L-127.361 178.362L3.67764 -5.87075ZM-13.3167 -17.0414L-134.38 153.416L-13.3167 -17.0414ZM-34.4147 -22.1741L-141.399 128.471L-34.4147 -22.1741ZM-64.8022 -14.4198L-148.464 103.359L-64.8022 -14.4198ZM-95.3643 -6.62101L-155.704 78.2916L-95.3643 -6.62101ZM-125.752 1.13324L-162.642 52.9689L-125.752 1.13324Z" stroke="#192E40" stroke-width="0.347" stroke-miterlimit="10"/>
</svg>
