<svg width="19" height="14" viewBox="0 0 19 14" fill="none" xmlns="http://www.w3.org/2000/svg">
<path d="M10.9616 3.89684V0L15.3108 4.23809L18.7979 7.63612L15.2489 10.5182L10.9616 14V10.1869C3.43488 9.63406 0.797852 13.8784 0.797852 13.8784C0.797852 11.234 1.02145 8.48968 3.15492 6.4116C5.63487 3.99408 9.22637 3.82301 10.9616 3.89684Z" fill="#FFFAF3"/>
</svg>
